{
  "statusCode": 200,
  "headers": {
    "Content-Type": "application/json"
  },
  "body": {
    "response":
      {
        "kvk_number": "00000001",
        "name": "Albert Heijn",
        "legal_entity": {
          "type": "BV",
          "registration_date": {
            "year": 1908,
            "month": 3,
            "day": 12
          }
        },
        "establishment": [
          {
            "main": true,
            "address": {
              "street_name": "Herengracht",
              "house_number": "106",
              "zip_code": "2468BB",
              "city": "AMSTERDAM",
              "country": "NLD"
            }
          }
        ]
      }
  }
}