{
  "statusCode": 200,
  "headers": {
    "Content-Type": "application/json"
  },
  "body": {
    "response": [
      {
        "kvk_number": "00000001",
        "name": "Albert Heijn",
        "legal_entity": {
          "type": "BV",
          "registration_date": {
            "year": 1908,
            "month": 3,
            "day": 12
          }
        },
        "establishment": [
          {
            "main": true,
            "address": {
              "street_name": "Herengracht",
              "house_number": "106",
              "zip_code": "2468BB",
              "city": "AMSTERDAM",
              "country": "NLD"
            }
          }
        ]
      },
      {
        "kvk_number": "00000002",
        "name": "Unilever",
        "legal_entity": {
          "type": "BV",
          "registration_date": {
            "year": 1940,
            "month": 8,
            "day": 17
          }
        },
        "establishment": [
          {
            "main": true,
            "address": {
              "street_name": "Herengracht",
              "house_number": "106",
              "zip_code": "2468BB",
              "city": "AMSTERDAM",
              "country": "NLD"
            }
          }
        ]
      },
      {
        "kvk_number": "00000003",
        "name": "MagicMiceStudios",
        "legal_entity": {
          "type": "ZZP",
          "registration_date": {
            "year": 2022,
            "month": 1,
            "day": 14
          }
        },
        "establishment": [
          {
            "main": true,
            "address": {
              "street_name": "Herengracht",
              "house_number": "106",
              "zip_code": "2468BB",
              "city": "AMSTERDAM",
              "country": "NLD"
            }
          }
        ]
      },
      {
        "kvk_number": "00000004",
        "name": "AndysCompany",
        "legal_entity": {
          "type": "VOF",
          "registration_date": {
            "year": 2023,
            "month": 1,
            "day": 23
          }
        },
        "establishment": [
          {
            "main": true,
            "address": {
              "street_name": "Herengracht",
              "house_number": "106",
              "zip_code": "2468BB",
              "city": "AMSTERDAM",
              "country": "NLD"
            }
          }
        ]
      }
    ]
  }
}